Kailyn Hogan’s DSPG Blog - Guide: Performing a Demographic Analysis
…
# group by gender
# create new columns for percent under 18 and percent over 65 using summarize()
sum_age <- age %>% 
  group_by(NAME,gender) %>% 
             summarize(prc_under18E = sum(under18E)/sum(totalE),
                       prc_under18M = sqrt(sum(under18M^2) / sum(totalE)^2 + (sum(under18E)^2 * sum(totalM^2)) / sum(totalE)^4),
                       prc_over65E = sum(over65E)/sum(totalE),
                       prc_over65M = sqrt(sum(over65M^2) / sum(totalE)^2 + (sum(over65E)^2 * sum(totalM^2)) / sum(totalE)^4))

`summarise()` has grouped output by 'NAME'. You can override using the
`.groups` argument.

sum_age

# A tibble: 2,056 x 6
# Groups:   NAME [1,028]
   NAME     gender prc_under18E prc_under18M prc_over65E prc_over65M
   <chr>    <chr>         <dbl>        <dbl>       <dbl>       <dbl>
 1 Ackley   Female        0.238       0.0604      0.247       0.0627
 2 Ackley   Male          0.233       0.0648      0.154       0.0400
 3 Ackworth Female        0.422       0.323       0.144       0.223 
 4 Ackworth Male          0.207       0.254       0.190       0.352 
 5 Adair    Female        0.252       0.130       0.204       0.0918
 6 Adair    Male          0.229       0.121       0.132       0.0686
 7 Adel     Female        0.242       0.0650      0.135       0.0440
 8 Adel     Male          0.337       0.0776      0.0911      0.0331
 9 Afton    Female        0.257       0.115       0.265       0.101 
10 Afton    Male          0.199       0.0931      0.149       0.0785
# i 2,046 more rows
…
